『完全独習 統計学入門』
…
　度数分布表が不要であれば、もう少し簡単にヒストグラムを作成できます。

　データをそのままデータフレームに格納します。

# データを格納
data_df <- tibble::tibble(
  x = data_x
)
data_df

## # A tibble: 80 × 1
##        x
##    <dbl>
##  1   151
##  2   154
##  3   158
##  4   162
##  5   154
##  6   152
##  7   151
##  8   167
##  9   160
## 10   161
## # … with 70 more rows
…
