『完全独習 統計学入門』
…
2-5 平均値をどう捉えるべきか

　最後に、データや階級値と平均値の関係をグラフで確認します。

　データとデータ番号をデータフレームに格納します。

# データを格納
data_df <- tibble::tibble(
  n = 1:N, # データ番号
  x = data_x
)
data_df

## # A tibble: 80 × 2
##        n     x
##    <int> <dbl>
##  1     1   151
##  2     2   154
##  3     3   158
##  4     4   162
##  5     5   154
##  6     6   152
##  7     7   151
##  8     8   167
##  9     9   160
## 10    10   161
## # … with 70 more rows
…
　平均値を赤色の破線で示します。水平線はgeom_hline()で描画できます。yintercept引数に平均値を指定します。

　データを昇順に並べ替えてみます。

# データを格納
data_df <- tibble::tibble(
  x = data_x
) |> 
  dplyr::arrange(x) |> # 並べ替え
  dplyr::mutate(n = dplyr::row_number()) # データ番号を割り当て
data_df

## # A tibble: 80 × 2
##        x     n
##    <dbl> <int>
##  1   143     1
##  2   146     2
##  3   146     3
##  4   148     4
##  5   149     5
##  6   150     6
##  7   150     7
##  8   151     8
##  9   151     9
## 10   151    10
## # … with 70 more rows
…
　「緑色のバーの面積」が「データの総和」、「(x軸の同じ範囲における)赤色の水平線からx軸の面積」が「N倍した平均値」に対応します。そして、2つの面積は等しくなります。言い換えると、2つの面積が等しくなるような値が平均値です。

　同様に、階級値を用いた場合も確認しましょう。

　各階級値を度数に応じて複製します。

# 階級値を複製
class_value_df <- freq_df |> 
  dplyr::select(class_value, freq) |> 
  tidyr::uncount(freq) |> # 度数に応じて複製
  dplyr::mutate(n = dplyr::row_number()) # データ番号
class_value_df

## # A tibble: 80 × 2
##    class_value     n
##          <dbl> <int>
##  1         143     1
##  2         148     2
##  3         148     3
##  4         148     4
##  5         148     5
##  6         148     6
##  7         148     7
##  8         153     8
##  9         153     9
## 10         153    10
## # … with 70 more rows
…
