『完全独習 統計学入門』
…
　そこで、確率変数(x軸)の値を0.1間隔で作成して、各値より大きい値をとる確率\(p(X > x)\)を計算します。

　正規分布の累積確率(\(x\)以下の値をとる確率)\(p(X \leq
x)\)はpnorm()で計算できます。確率変数の引数qに0.1間隔の値x_vec、平均の引数meanに0、標準偏差の引数sdに1を指定します。lower.tail引数にFALSEを指定すると、第1引数に指定した値より大きい値をとる確率を返します。

　作図用のデータフレームを作成します。

# 区間ごとの確率を計算
prob_df <- tibble::tibble(
  x = x_vec[-length(x_vec)] + 0.5*x_width, 
  probability = prob_vec[-length(x_vec)] - prob_vec[-1]
)
prob_df

## # A tibble: 101 × 2
##        x probability
##    <dbl>       <dbl>
##  1 -4.95 0.000000193
##  2 -4.85 0.000000314
##  3 -4.75 0.000000507
##  4 -4.65 0.000000812
##  5 -4.55 0.00000129 
##  6 -4.45 0.00000201 
##  7 -4.35 0.00000313 
##  8 -4.25 0.00000481 
##  9 -4.15 0.00000731 
## 10 -4.05 0.0000110  
## # … with 91 more rows
…
　続いて、正規分布の折れ線グラフを作成します。棒グラフの階級の幅を無限に小さくしたグラフに相当します。

　確率密度を計算します。

# (連続値的な)x軸の値を指定
x_vec = seq(from = -5, to = 5, length.out = 501)

# 確率密度を計算
dens_df <- tibble::tibble(
  x = x_vec, 
  density = dnorm(x = x_vec, mean = mu, sd = sigma)
)
dens_df

## # A tibble: 501 × 2
##        x    density
##    <dbl>      <dbl>
##  1 -5    0.00000149
##  2 -4.98 0.00000164
##  3 -4.96 0.00000181
##  4 -4.94 0.00000200
##  5 -4.92 0.00000221
##  6 -4.9  0.00000244
##  7 -4.88 0.00000269
##  8 -4.86 0.00000296
##  9 -4.84 0.00000327
## 10 -4.82 0.00000360
## # … with 491 more rows
…
標準偏差の可視化

　ここまでで、(標準)正規分布をグラフ化できました。次に、標準偏差パラメータの影響をグラフで確認します。

　平を中心に、標準偏差1つ分の範囲の確率密度を計算します。

# 標準偏差1つ分の確率密度を計算
sd_1_df <- tibble::tibble(
  x = seq(from = mu-sigma, to = mu+sigma, length.out = 500), 
  density = dnorm(x = x, mean = mu, sd = sigma)
)
sd_1_df

## # A tibble: 500 × 2
##         x density
##     <dbl>   <dbl>
##  1 -1       0.242
##  2 -0.996   0.243
##  3 -0.992   0.244
##  4 -0.988   0.245
##  5 -0.984   0.246
##  6 -0.980   0.247
##  7 -0.976   0.248
##  8 -0.972   0.249
##  9 -0.968   0.250
## 10 -0.964   0.251
## # … with 490 more rows

　確率変数(x軸)の範囲を\(\mu -
\sigma\)から\(\mu +
\sigma\)として、確率密度を計算します。

　同様に、標準偏差2つ分の範囲の確率密度を計算します。

# 標準偏差2つ分の確率密度を計算
sd_2_df <- tibble::tibble(
  x = seq(from = mu-sigma*2, to = mu+sigma*2, length.out = 500), 
  density = dnorm(x = x, mean = mu, sd = sigma)
)
sd_2_df

## # A tibble: 500 × 2
##        x density
##    <dbl>   <dbl>
##  1 -2     0.0540
##  2 -1.99  0.0549
##  3 -1.98  0.0557
##  4 -1.98  0.0566
##  5 -1.97  0.0575
##  6 -1.96  0.0585
##  7 -1.95  0.0594
##  8 -1.94  0.0603
##  9 -1.94  0.0613
## 10 -1.93  0.0622
## # … with 490 more rows
…
折れ線グラフで可視化

　任意のパラメータの正規分布と、標準偏差パラメータの影響をグラフで確認します。

　確率密度を計算します。

# 確率密度を計算
dens_df <- tibble::tibble(
  x = seq(from = mu-sigma*3, to = mu+sigma*3, length.out = 501), 
  density = dnorm(x = x, mean = mu, sd = sigma)
)
dens_df

## # A tibble: 501 × 2
##        x density
##    <dbl>   <dbl>
##  1 -5    0.00148
##  2 -4.96 0.00153
##  3 -4.93 0.00159
##  4 -4.89 0.00164
##  5 -4.86 0.00170
##  6 -4.82 0.00177
##  7 -4.78 0.00183
##  8 -4.75 0.00189
##  9 -4.71 0.00196
## 10 -4.68 0.00203
## # … with 491 more rows
…
　期待値(平均)\(\mathbb{E}[x] = N
\phi\)を正規分布の平均パラメータ\(\mu\)、\(\mathbb{s}[x] = \sqrt{N}
\phi\)を標準偏差パラメータ\(\sigma\)とします。

　正規分布に従う確率密度を計算します。

# 正規分布の確率密度を計算
norm_df <- tibble::tibble(
  x = seq(from = 0, to = N, length.out = 501), 
  density = dnorm(x = x, mean = mu, sd = sigma)
)
norm_df

## # A tibble: 501 × 2
##        x   density
##    <dbl>     <dbl>
##  1 0     0.0000232
##  2 0.036 0.0000249
##  3 0.072 0.0000268
##  4 0.108 0.0000288
##  5 0.144 0.0000309
##  6 0.18  0.0000331
##  7 0.216 0.0000356
##  8 0.252 0.0000381
##  9 0.288 0.0000409
## 10 0.324 0.0000439
## # … with 491 more rows
…
